<svg id="office_365" data-name="office 365" xmlns="http://www.w3.org/2000/svg" width="512" height="512" viewBox="0 0 512 512">
  <defs>
    <style>
      .cls-1 {
        fill: #b73e27;
      }

      .cls-1, .cls-2, .cls-3, .cls-4 {
        fill-rule: evenodd;
      }

      .cls-2 {
        fill: #f5c226;
      }

      .cls-3 {
        fill: #e3583d;
      }

      .cls-4 {
        fill: #fff;
      }
    </style>
  </defs>
  <g id="office_365_integration" data-name="office 365 integration">
    <path id="Rounded_Rectangle_3_copy_2" data-name="Rounded Rectangle 3 copy 2" class="cls-1" d="M196.555,220.559H387.36c10.383,0,17.241,8.665,15.318,19.353L379.707,367.646C377.785,378.335,367.81,387,357.428,387H166.622c-10.382,0-17.24-8.665-15.318-19.354l22.971-127.734C176.2,229.224,186.172,220.559,196.555,220.559Z"/>
    <path id="Rounded_Rectangle_3_copy_5" data-name="Rounded Rectangle 3 copy 5" class="cls-1" d="M190.311,201h84.876c4.618,0,7.669,3.853,6.814,8.605L271.783,266.4c-0.856,4.752-5.293,8.605-9.911,8.605H177c-4.618,0-7.669-3.853-6.814-8.605L180.4,209.6C181.255,204.851,185.692,201,190.311,201Z"/>
    <path id="caret-down_copy_2" data-name="caret-down copy 2" class="cls-2" d="M298.613,191c-5.867,0-8.8,8.922-4.647,14.152l42.389,53.414a5.694,5.694,0,0,0,9.329,0l42.39-53.414c4.154-5.23,1.22-14.152-4.647-14.152H298.613ZM198.453,156c-4.849,0-7.274,7.393-3.841,11.726l35.036,44.257a4.7,4.7,0,0,0,7.71,0L272.4,167.721C275.828,163.388,273.4,156,268.554,156h-70.1Zm94.4-29c-3.413,0-5.119,5.226-2.7,8.289l24.656,31.285a3.3,3.3,0,0,0,5.425,0l24.656-31.285c2.416-3.063.709-8.289-2.7-8.289h-49.33Z"/>
    <path id="Rounded_Rectangle_3_copy" data-name="Rounded Rectangle 3 copy" class="cls-3" d="M329.518,238H125.64c-10.383,0-17.241,7.758-15.318,17.326l22.971,114.352c1.922,9.569,11.9,17.326,22.279,17.326H359.4c10.366,0,17.213-7.757,15.294-17.326L351.762,255.322C349.842,245.754,339.884,238,329.518,238Z"/>
    <path id="caret-right_copy_2" data-name="caret-right copy 2" class="cls-4" d="M179.99,272.83L192.178,337.1l18.262-9.051-9.613-50.688,35.344-9.051,14.248,75.126L195.154,338l57.84,19.008,29.017-9.052L265.7,261.969l-32.622-9.957Z"/>
  </g>
</svg>
