<svg xmlns="http://www.w3.org/2000/svg" width="512" height="512" viewBox="0 0 512 512">
  <defs>
    <style>
      .cls-1 {
        fill: #9a171f;
        fill-rule: evenodd;
      }
    </style>
  </defs>
  <path id="envelope" class="cls-1" d="M409.783,213.531C395.807,224.9,377.341,239.4,313.7,287.794c-12.663,9.666-35.312,31.286-57.584,31.089-22.149.131-44.361-21.03-57.524-31.089-63.637-48.4-82.166-62.833-96.141-74.2a3.721,3.721,0,0,0-6.052,3.07v133.5c0,17.308,13.414,31.35,29.946,31.35h259.54c16.534,0,29.947-14.042,29.947-31.35V216.6A3.744,3.744,0,0,0,409.783,213.531ZM256.118,297.918c14.475,0.261,35.312-19.072,45.794-27.041C384.7,207.98,391,202.494,410.1,186.818a15.906,15.906,0,0,0,5.739-12.345v-12.41c0-17.308-13.413-31.35-29.947-31.35H126.347c-16.532,0-29.946,14.042-29.946,31.35v12.41a16.008,16.008,0,0,0,5.738,12.345c19.091,15.609,25.393,21.162,108.184,84.059C220.806,278.846,241.642,298.179,256.118,297.918Z"/>
</svg>
