<svg xmlns="http://www.w3.org/2000/svg" width="512" height="512" viewBox="0 0 512 512">
  <defs>
    <style>
      .cls-1 {
        fill: #fff;
        fill-rule: evenodd;
      }
    </style>
  </defs>
  <path id="expert_details" data-name="expert details" class="cls-1" d="M256.036,255.516c40.393,0,73.13-35.03,73.13-78.254s-32.737-78.253-73.13-78.253-73.13,35.03-73.13,78.253S215.643,255.516,256.036,255.516Zm51.191,19.564h-9.541a93.569,93.569,0,0,1-83.3,0h-9.541c-42.393,0-76.787,36.8-76.787,82.166v25.432c0,16.2,12.284,29.346,27.424,29.346H356.59c15.14,0,27.424-13.145,27.424-29.346V357.246C384.014,311.883,349.62,275.08,307.227,275.08Z"/>
</svg>
