<svg xmlns="http://www.w3.org/2000/svg" width="512" height="512" viewBox="0 0 512 512">
  <defs>
    <style>
      .cls-1 {
        fill: #fff;
        fill-rule: evenodd;
      }
    </style>
  </defs>
  <path id="comment" class="cls-1" d="M255.566,108.107c-92.5,0-167.468,61.306-167.468,136.968,0,32.661,14,62.557,37.288,86.066-8.177,33.188-35.521,62.755-35.848,63.084a5.262,5.262,0,0,0-.981,5.729,5.121,5.121,0,0,0,4.775,3.161c43.371,0,75.884-20.94,91.976-33.847a198.331,198.331,0,0,0,70.258,12.775c92.5,0,167.468-61.306,167.468-136.968S348.066,108.107,255.566,108.107Z"/>
</svg>
