<svg xmlns="http://www.w3.org/2000/svg" width="512" height="512" viewBox="0 0 512 512">
  <defs>
    <style>
      .cls-1 {
        fill: #9a171f;
        fill-rule: evenodd;
      }
    </style>
  </defs>
  <path id="phone" class="cls-1" d="M407.171,105.062L340.943,89.407a15.3,15.3,0,0,0-17.513,9.067l-30.567,73.062a15.866,15.866,0,0,0,4.395,18.265l38.589,32.356c-22.923,50.034-62.98,91.653-112.84,115.594l-31.586-39.532a15.033,15.033,0,0,0-17.831-4.5L102.269,325.03a15.942,15.942,0,0,0-8.915,18.005l15.282,67.843a15.362,15.362,0,0,0,14.9,12.132c163.085,0,295.478-135.358,295.478-302.682A15.565,15.565,0,0,0,407.171,105.062Z"/>
</svg>
