<svg xmlns="http://www.w3.org/2000/svg" width="512" height="512" viewBox="0 0 512 512">
  <defs>
    <style>
      .cls-1 {
        fill: #55cde3;
        fill-rule: evenodd;
      }
    </style>
  </defs>
  <path id="twitter" class="cls-1" d="M394.9,180.95a159.019,159.019,0,0,0,35.947-39.087,137.867,137.867,0,0,1-41.272,11.7A74.81,74.81,0,0,0,421.083,111.9,136.709,136.709,0,0,1,375.6,130.159a69.827,69.827,0,0,0-52.367-23.874c-39.72,0-71.672,33.939-71.672,75.6a89.774,89.774,0,0,0,1.776,17.32c-59.468-3.278-112.5-33.237-147.78-79.113a78.195,78.195,0,0,0-9.764,38.152c0,26.216,12.648,49.387,31.953,62.963a69.359,69.359,0,0,1-32.4-9.6v0.936c0,36.747,24.631,67.175,57.471,74.2a72.025,72.025,0,0,1-18.86,2.575,85.636,85.636,0,0,1-13.536-1.17c9.1,29.961,35.5,51.728,67.012,52.431a138.874,138.874,0,0,1-88.98,32.3,140.581,140.581,0,0,1-17.306-.936A194.955,194.955,0,0,0,191.2,405.884c131.805,0,203.918-115.158,203.918-215.1C395.122,187.505,395.122,184.227,394.9,180.95Z"/>
</svg>
