<svg id="carpet_unselected" data-name="carpet unselected" xmlns="http://www.w3.org/2000/svg" width="512" height="512" viewBox="0 0 512 512">
  <defs>
    <style>
      .cls-1 {
        fill: #adadad;
      }

      .cls-1, .cls-2, .cls-3 {
        fill-rule: evenodd;
      }

      .cls-2 {
        fill: #d9d9d9;
      }

      .cls-3 {
        fill: #c3c3c3;
      }
    </style>
  </defs>
  <path id="Shape_530_copy_5" data-name="Shape 530 copy 5" class="cls-1" d="M52.313,173.781H98.1a3,3,0,0,1,3,3v13.437a3,3,0,0,1-3,3H52.313a3,3,0,0,1-3-3V176.781A3,3,0,0,1,52.313,173.781Zm0,38.846H98.1a3,3,0,0,1,3,3v13.438a3,3,0,0,1-3,3H52.313a3,3,0,0,1-3-3V215.627A3,3,0,0,1,52.313,212.627Zm0,38.847H98.1a3,3,0,0,1,3,3v13.438a3,3,0,0,1-3,3H52.313a3,3,0,0,1-3-3V254.474A3,3,0,0,1,52.313,251.474Zm0,35.612H98.1a3,3,0,0,1,3,3v13.437a3,3,0,0,1-3,3H52.313a3,3,0,0,1-3-3V290.086A3,3,0,0,1,52.313,287.086Zm0,35.612H98.1a3,3,0,0,1,3,3v13.409a3,3,0,0,1-3,3H52.313a3,3,0,0,1-3-3V325.7A3,3,0,0,1,52.313,322.7ZM414.873,173.781h45.786a3,3,0,0,1,3,3v13.437a3,3,0,0,1-3,3H414.873a3,3,0,0,1-3-3V176.781A3,3,0,0,1,414.873,173.781Zm0,38.846h45.786a3,3,0,0,1,3,3v13.438a3,3,0,0,1-3,3H414.873a3,3,0,0,1-3-3V215.627A3,3,0,0,1,414.873,212.627Zm0,38.847h45.786a3,3,0,0,1,3,3v13.438a3,3,0,0,1-3,3H414.873a3,3,0,0,1-3-3V254.474A3,3,0,0,1,414.873,251.474Zm0,35.612h45.786a3,3,0,0,1,3,3v13.437a3,3,0,0,1-3,3H414.873a3,3,0,0,1-3-3V290.086A3,3,0,0,1,414.873,287.086Zm0,35.612h45.786a3,3,0,0,1,3,3v13.409a3,3,0,0,1-3,3H414.873a3,3,0,0,1-3-3V325.7A3,3,0,0,1,414.873,322.7Zm3.463-161.854-3.237,174.8-6.474,16.185-304.282-3.237L91.4,235.3l6.474-84.163,284.859,9.711h35.608Z"/>
  <path id="Rectangle_1127_copy_2" data-name="Rectangle 1127 copy 2" class="cls-2" d="M143.18,164.076h55.05V351.84H143.18V164.076Zm87.4,0h55.049V351.84H230.579V164.076Zm87.4,0h55.049V351.84H317.977V164.076Z"/>
  <path id="Shape_530_copy_4" data-name="Shape 530 copy 4" class="cls-3" d="M80.22,144.667H432.752a5,5,0,0,1,5,5V363.014a5,5,0,0,1-5,5H80.22a5,5,0,0,1-5-5V149.667A5,5,0,0,1,80.22,144.667Zm33.846,32.348H402.14V338.872H114.066V177.015Z"/>
</svg>
