<svg id="end_off_lease_unselected" data-name="end off lease unselected" xmlns="http://www.w3.org/2000/svg" width="512" height="512" viewBox="0 0 512 512">
  <defs>
    <style>
      .cls-1 {
        fill: #c3c3c3;
      }

      .cls-1, .cls-2 {
        fill-rule: evenodd;
      }

      .cls-2 {
        fill: #adadad;
      }
    </style>
  </defs>
  <path class="cls-1" d="M123.766,264.429L107.58,338.881l79.308,6.474h17.8l12.949-80.926H123.766Zm174.8,0,3.237,84.163h77.689l19.422-29.133-6.474-55.03H298.565Zm0-158.615v74.452l-71.214,25.9-9.711-32.37L214.4,105.814h84.163Z"/>
  <path id="_copy_3" data-name=" copy 3" class="cls-2" d="M185.678,248.226h141.64a10.175,10.175,0,0,0,10.117-10.172V116a10.174,10.174,0,0,0-10.117-10.171H276.732v61.027L256.5,153.316l-20.234,13.54V105.829H185.678A10.174,10.174,0,0,0,175.561,116V238.054A10.175,10.175,0,0,0,185.678,248.226ZM276.315,406.84h141.64a10.174,10.174,0,0,0,10.117-10.171V274.615a10.174,10.174,0,0,0-10.117-10.171H367.369v61.027L347.135,311.93,326.9,325.471V264.444H276.315A10.174,10.174,0,0,0,266.2,274.615V396.669A10.174,10.174,0,0,0,276.315,406.84Zm-181.273,0h141.64A10.174,10.174,0,0,0,246.8,396.669V274.615a10.174,10.174,0,0,0-10.117-10.171H186.1v61.027L165.861,311.93l-20.234,13.541V264.444H95.042a10.174,10.174,0,0,0-10.117,10.171V396.669A10.174,10.174,0,0,0,95.042,406.84Zm19.013-97.092"/>
</svg>
