<svg id="overn_unseelected" data-name="overn unseelected" xmlns="http://www.w3.org/2000/svg" width="512" height="512" viewBox="0 0 512 512">
  <defs>
    <style>
      .cls-1 {
        fill: #d9d9d9;
      }

      .cls-1, .cls-2, .cls-3 {
        fill-rule: evenodd;
      }

      .cls-2 {
        fill: #adadad;
      }

      .cls-3 {
        fill: #c3c3c3;
      }
    </style>
  </defs>
  <path class="cls-1" d="M155.248,221H355.923V347.242H155.248V221Zm97.1-12.934L152,201.589l-3.237-42.082,16.185-19.422,51.792,3.237,35.608,3.237v61.5Z"/>
  <path id="oven_base_copy" data-name="oven base copy" class="cls-2" d="M386.512,369.942h10.12a6.071,6.071,0,0,1,6.072,6.069v10.116l-292.432-.3V375.708a6.069,6.069,0,0,1,6.069-6.069h10.115Zm0,0V139.318a12.14,12.14,0,0,0-12.143-12.138l-235.775-.3a12.138,12.138,0,0,0-12.138,12.138V369.639ZM159.935,155.849a6,6,0,0,1,5.987-6.013h19.956a6,6,0,0,1,5.987,6.013v20.043a6,6,0,0,1-5.987,6.012H165.922a6,6,0,0,1-5.987-6.012V155.849ZM354.111,347.283l-194.177-.3V230.31a6.015,6.015,0,0,1,6-6.031l182.174,0.3a6.018,6.018,0,0,1,6,6.032V347.283ZM240.827,176.192a6,6,0,0,1-5.989,6.013H214.873a6,6,0,0,1-5.99-6.013V156.15a6,6,0,0,1,5.99-6.013h19.965a6,6,0,0,1,5.989,6.013v20.042Z"/>
  <path id="oven_base_copy_3" data-name="oven base copy 3" class="cls-3" d="M386.012,202l0.5-62.683a12.14,12.14,0,0,0-12.143-12.138l-235.775-.3a12.138,12.138,0,0,0-12.138,12.138l-0.469,62.905Z"/>
  <path id="oven_base_copy_2" data-name="oven base copy 2" class="cls-1" d="M159.935,155.849a6,6,0,0,1,5.987-6.013h19.956a6,6,0,0,1,5.987,6.013v20.043a6,6,0,0,1-5.987,6.012H165.922a6,6,0,0,1-5.987-6.012V155.849Zm80.892,20.343a6,6,0,0,1-5.989,6.013H214.873a6,6,0,0,1-5.99-6.013V156.15a6,6,0,0,1,5.99-6.013h19.965a6,6,0,0,1,5.989,6.013v20.042Z"/>
</svg>
